Calculating uniqueness
…
#View
print(res)

## # A tibble: 36 x 14
##    distrib dist_method data_scale row_n col_n     n    min     med      mean
##    <chr>   <chr>            <dbl> <dbl> <dbl> <int>  <dbl>   <dbl>     <dbl>
##  1 normal  euclidean            1    10     5    10 -1.36   0.113  -1.89e-16
##  2 normal  euclidean          100    10     5    10 -1.31  -0.141   7.36e-17
##  3 normal  euclidean        10000    10     5    10 -1.28  -0.433   2.39e-16
##  4 normal  manhattan            1    10     5    10 -1.34  -0.230  -6.47e-16
##  5 normal  manhattan          100    10     5    10 -1.29  -0.127   3.55e-16
##  6 normal  manhattan        10000    10     5    10 -1.40  -0.0232 -4.39e-16
##  7 normal  minkowski            1    10     5    10 -1.42  -0.0301  2.05e-16
##  8 normal  minkowski          100    10     5    10 -1.28  -0.0207 -2.78e-16
##  9 normal  minkowski        10000    10     5    10 -1.06  -0.184   1.01e-16
## 10 uniform euclidean            1    10     5    10 -0.947 -0.297   1.72e-16
## #  with 26 more rows, and 5 more variables: max <dbl>, skewness <dbl>,
## #   iqr <dbl>, shapiro_w <dbl>, shapiro_p <dbl>
…
